{
    "$schema": "https://schema.management.azure.com/schemas/2015-01-01/deploymentTemplate.json#",
    "contentVersion": "1.0.0.0",
    "parameters" : {
        "dnsNameForPublicIP" : {
            "type" : "string",
            "metadata": {
                "description": "DNS Name for the Public IP. Must be lowercase.",
                "type": "string",
                    "displayname":"DNS Name"
            }
        },
        "location": {
            "type": "string",
            "defaultValue" : "West US",
            "allowedValues": ["West US", "East US", "North Central US", "North Europe", "West Europe", "East Asia", "Southeast Asia"],
            "metadata": {
                "description": "Location of the Public IP.",
                "type": "ddl",
                    "displayname":"Location"
            }
        }
    },
    "variables": {
        "publicIPAddressName" : "publicIp1",
        "publicIPAddressType" : "Dynamic"
    },
    "resources": [
    {
        "apiVersion": "2015-05-01-preview",
        "type": "Microsoft.Network/publicIPAddresses",
        "name": "[variables('publicIPAddressName')]",
        "location": "[parameters('location')]",
        "properties": {
            "publicIPAllocationMethod": "[variables('publicIPAddressType')]",
            "dnsSettings": {
                "domainNameLabel": "[parameters('dnsNameForPublicIP')]"
            }
        }
    }
    ]
}
